EDA
…
For the purpose of this homework, we want to read the data in the tidyverse way. We will use the joins provided the the source team.

One thing we notice is that there are other columns outside of those in the specified join that seem to match, which could result in duplication and highly dimensional data. Some examples include guardian, freetime, and famrel. In addition, some variables that appear to be cateogrical and should be cast as factors are cast as dbl type.

math_data <- read_delim(file="files/student-mat.csv",delim=";",show_col_types = FALSE)
port_data <- read_delim(file="files/student-por.csv",delim=";",show_col_types = FALSE)
merged_data <- inner_join(math_data,port_data,by=c("school","sex","age","address","famsize","Pstatus","Medu","Fedu","Mjob","Fjob","reason","nursery","internet"))

merged_data

# A tibble: 382 × 53
   school sex     age address famsize Pstatus  Medu  Fedu Mjob     Fjob   reason
   <chr>  <chr> <dbl> <chr>   <chr>   <chr>   <dbl> <dbl> <chr>    <chr>  <chr> 
 1 GP     F        18 U       GT3     A           4     4 at_home  teach… course
 2 GP     F        17 U       GT3     T           1     1 at_home  other  course
 3 GP     F        15 U       LE3     T           1     1 at_home  other  other 
 4 GP     F        15 U       GT3     T           4     2 health   servi… home  
 5 GP     F        16 U       GT3     T           3     3 other    other  home  
 6 GP     M        16 U       LE3     T           4     3 services other  reput…
 7 GP     M        16 U       LE3     T           2     2 other    other  home  
 8 GP     F        17 U       GT3     A           4     4 other    teach… home  
 9 GP     M        15 U       LE3     A           3     2 services other  home  
10 GP     M        15 U       GT3     T           3     4 other    other  home  
# ℹ 372 more rows
# ℹ 42 more variables: guardian.x <chr>, traveltime.x <dbl>, studytime.x <dbl>,
#   failures.x <dbl>, schoolsup.x <chr>, famsup.x <chr>, paid.x <chr>,
#   activities.x <chr>, nursery <chr>, higher.x <chr>, internet <chr>,
#   romantic.x <chr>, famrel.x <dbl>, freetime.x <dbl>, goout.x <dbl>,
#   Dalc.x <dbl>, Walc.x <dbl>, health.x <dbl>, absences.x <dbl>, G1.x <dbl>,
#   G2.x <dbl>, G3.x <dbl>, guardian.y <chr>, traveltime.y <dbl>, …
…
 [1] "school"     "sex"        "age"        "address"    "famsize"   
 [6] "Pstatus"    "Medu"       "Fedu"       "Mjob"       "Fjob"      
[11] "reason"     "guardian"   "traveltime" "studytime"  "failures"  
[16] "schoolsup"  "famsup"     "paid.x"     "activities" "nursery"   
[21] "higher"     "internet"   "romantic"   "famrel"     "freetime"  
[26] "goout"      "Dalc"       "Walc"       "health"     "absences.x"
[31] "G1.x"       "G2.x"       "G3.x"       "paid.y"     "absences.y"
[36] "G1.y"       "G2.y"       "G3.y"      

merged_data

# A tibble: 320 × 38
   school sex     age address famsize Pstatus  Medu  Fedu Mjob     Fjob   reason
   <chr>  <chr> <dbl> <chr>   <chr>   <chr>   <dbl> <dbl> <chr>    <chr>  <chr> 
 1 GP     F        18 U       GT3     A           4     4 at_home  teach… course
 2 GP     F        17 U       GT3     T           1     1 at_home  other  course
 3 GP     F        15 U       GT3     T           4     2 health   servi… home  
 4 GP     F        16 U       GT3     T           3     3 other    other  home  
 5 GP     M        16 U       LE3     T           4     3 services other  reput…
 6 GP     M        16 U       LE3     T           2     2 other    other  home  
 7 GP     F        17 U       GT3     A           4     4 other    teach… home  
 8 GP     M        15 U       LE3     A           3     2 services other  home  
 9 GP     M        15 U       GT3     T           3     4 other    other  home  
10 GP     F        15 U       GT3     T           4     4 teacher  health reput…
# ℹ 310 more rows
# ℹ 27 more variables: guardian <chr>, traveltime <dbl>, studytime <dbl>,
#   failures <dbl>, schoolsup <chr>, famsup <chr>, paid.x <chr>,
#   activities <chr>, nursery <chr>, higher <chr>, internet <chr>,
#   romantic <chr>, famrel <dbl>, freetime <dbl>, goout <dbl>, Dalc <dbl>,
#   Walc <dbl>, health <dbl>, absences.x <dbl>, G1.x <dbl>, G2.x <dbl>,
#   G3.x <dbl>, paid.y <chr>, absences.y <dbl>, G1.y <dbl>, G2.y <dbl>, …
…
`summarise()` has grouped output by 'age'. You can override using the `.groups`
argument.

ageAbsGroupMetrics

# A tibble: 65 × 17
# Groups:   age [6]
     age absences.x mean_G1.x median_G1.x var_G1.x sd_G1.x IQR_G1.x mean_G2.x
   <dbl>      <dbl>     <dbl>       <dbl>    <dbl>   <dbl>    <dbl>     <dbl>
 1    15          0      11.3        10      11.6     3.4      6         11.0
 2    15          2      11.9        11       8.77    2.96     4.5       12.2
 3    15          4      13          13       5       2.24     4         13.9
 4    15          6      12.6        11      12.0     3.46     5         13.4
 5    15          8      10.2        10       6.97    2.64     3.5       10.2
 6    15         10      11.7        10      32.3     5.69     5.5       12  
 7    15         12      16          16      NA      NA        0         16  
 8    15         26       7           7      NA      NA        0          6  
 9    16          0      11.1        12       9.12    3.02     5         11.3
10    16          2      13.4        13.5     5.63    2.37     3.25      13.8
# ℹ 55 more rows
# ℹ 9 more variables: median_G2.x <dbl>, var_G2.x <dbl>, sd_G2.x <dbl>,
#   IQR_G2.x <dbl>, mean_G3.x <dbl>, median_G3.x <dbl>, var_G3.x <dbl>,
#   sd_G3.x <dbl>, IQR_G3.x <dbl>
…
